<svg xmlns="http://www.w3.org/2000/svg" width="50" height="50" viewBox="0 0 50 50">
  <g id="Group_4456" data-name="Group 4456" transform="translate(7334 -13168)">
    <path id="Path_4016" data-name="Path 4016" d="M15.862-192.793v17.3a2.5,2.5,0,0,0,2.492,2.492H29.025a2.5,2.5,0,0,0,2.492-2.492.809.809,0,0,0-.809-.809.809.809,0,0,0-.808.809.876.876,0,0,1-.875.875H18.354a.876.876,0,0,1-.876-.875v-17.3a.876.876,0,0,1,.876-.875H29.025a.876.876,0,0,1,.875.875.808.808,0,0,0,.808.808.808.808,0,0,0,.808-.808,2.494,2.494,0,0,0-2.491-2.492H18.354A2.5,2.5,0,0,0,15.862-192.793Z" transform="translate(-7334 13378)" fill="#007bc4"/>
    <path id="Path_4017" data-name="Path 4017" d="M31.3-184.954H23.529a.808.808,0,0,0-.808.808.809.809,0,0,0,.808.809H31.3l-3.317,3.132a.809.809,0,0,0-.033,1.143.809.809,0,0,0,1.143.033l4.795-4.529a.806.806,0,0,0,.254-.587.808.808,0,0,0-.254-.588l-4.8-4.528a.8.8,0,0,0-.554-.221.8.8,0,0,0-.588.254.809.809,0,0,0,.033,1.142Z" transform="translate(-7334 13378)" fill="#007bc4"/>
    <rect id="Rectangle_1072" data-name="Rectangle 1072" width="50" height="50" transform="translate(-7334 13168)" fill="none"/>
  </g>
</svg>
