{
    "availableLanguageIds": [
        "it_IT",
        "en_US"
    ],
    "defaultLanguageId": "it_IT",
    "fields": [
        {
            "label": {
                "it_IT": "Contenuto",
                "en_US": "Content"
            },
            "predefinedValue": {
                "it_IT": "",
                "en_US": ""
            },
            "style": {
                "it_IT": "",
                "en_US": ""
            },
            "tip": {
                "it_IT": "",
                "en_US": ""
            },
            "dataType": "html",
            "fieldNamespace": "ddm",
            "indexType": "text",
            "localizable": true,
            "name": "content",
            "readOnly": false,
            "repeatable": false,
            "required": false,
            "showLabel": true,
            "type": "ddm-text-html"
        },
        {
            "label": {
                "it_IT": "Nome Dirigente",
                "en_US": "Leader Name"
            },
            "predefinedValue": {
                "it_IT": "",
                "en_US": ""
            },
            "style": {
                "it_IT": "",
                "en_US": ""
            },
            "tip": {
                "it_IT": "",
                "en_US": ""
            },
            "dataType": "string",
            "indexType": "keyword",
            "localizable": true,
            "name": "leaderName",
            "readOnly": false,
            "repeatable": false,
            "required": true,
            "showLabel": true,
            "type": "text",
            "nestedFields": [
                {
                    "label": {
                        "it_IT": "Link Dirigente",
                        "en_US": "Leader Link"
                    },
                    "predefinedValue": {
                        "it_IT": "",
                        "en_US": ""
                    },
                    "style": {
                        "it_IT": "",
                        "en_US": ""
                    },
                    "tip": {
                        "it_IT": "",
                        "en_US": ""
                    },
                    "dataType": "string",
                    "indexType": "keyword",
                    "localizable": true,
                    "name": "leaderLink",
                    "readOnly": false,
                    "repeatable": false,
                    "required": false,
                    "showLabel": true,
                    "type": "text"
                },
                {
                    "label": {
                        "it_IT": "Sede",
                        "en_US": "Seat"
                    },
                    "predefinedValue": {
                        "it_IT": "",
                        "en_US": ""
                    },
                    "style": {
                        "it_IT": "",
                        "en_US": ""
                    },
                    "tip": {
                        "it_IT": "",
                        "en_US": ""
                    },
                    "dataType": "string",
                    "indexType": "keyword",
                    "localizable": true,
                    "name": "seat",
                    "readOnly": false,
                    "repeatable": false,
                    "required": true,
                    "showLabel": true,
                    "type": "text"
                },
                {
                    "label": {
                        "it_IT": "Telefono",
                        "en_US": "Phone"
                    },
                    "predefinedValue": {
                        "it_IT": "",
                        "en_US": ""
                    },
                    "style": {
                        "it_IT": "",
                        "en_US": ""
                    },
                    "tip": {
                        "it_IT": "",
                        "en_US": ""
                    },
                    "dataType": "string",
                    "indexType": "keyword",
                    "localizable": true,
                    "name": "phone",
                    "readOnly": false,
                    "repeatable": false,
                    "required": true,
                    "showLabel": true,
                    "type": "text"
                },
                {
                    "label": {
                        "it_IT": "Email",
                        "en_US": "Email"
                    },
                    "predefinedValue": {
                        "it_IT": "",
                        "en_US": ""
                    },
                    "style": {
                        "it_IT": "",
                        "en_US": ""
                    },
                    "tip": {
                        "it_IT": "",
                        "en_US": ""
                    },
                    "dataType": "string",
                    "indexType": "keyword",
                    "localizable": true,
                    "name": "email",
                    "readOnly": false,
                    "repeatable": false,
                    "required": true,
                    "showLabel": true,
                    "type": "text"
                },
                {
                    "label": {
                        "it_IT": "Pec Email",
                        "en_US": "Pec Email"
                    },
                    "predefinedValue": {
                        "it_IT": "",
                        "en_US": ""
                    },
                    "style": {
                        "it_IT": "",
                        "en_US": ""
                    },
                    "tip": {
                        "it_IT": "",
                        "en_US": ""
                    },
                    "dataType": "string",
                    "indexType": "keyword",
                    "localizable": true,
                    "name": "pecEmail",
                    "readOnly": false,
                    "repeatable": false,
                    "required": false,
                    "showLabel": true,
                    "type": "text"
                }
            ]
        }
    ]
}