{
    "availableLanguageIds": [
        "it_IT",
        "en_US"
    ],
    "defaultLanguageId": "it_IT",
    "fields": [
        {
            "label": {
                "it_IT": "Immagine",
                "en_US": "More Info Image"
            },
            "predefinedValue": {
                "it_IT": "",
                "en_US": ""
            },
            "style": {
                "it_IT": "",
                "en_US": ""
            },
            "tip": {
                "it_IT": "",
                "en_US": ""
            },
            "dataType": "image",
            "fieldNamespace": "ddm",
            "indexType": "text",
            "localizable": true,
            "name": "immagine",
            "readOnly": false,
            "repeatable": false,
            "required": false,
            "showLabel": true,
            "type": "ddm-image"
        },
        {
            "label": {
                "it_IT": "Informazioni",
                "en_US": "Informations"
            },
            "predefinedValue": {
                "it_IT": "",
                "en_US": ""
            },
            "style": {
                "it_IT": "",
                "en_US": ""
            },
            "tip": {
                "it_IT": "",
                "en_US": ""
            },
            "dataType": "",
            "fieldNamespace": "ddm",
            "indexType": "keyword",
            "localizable": true,
            "name": "informazioni",
            "readOnly": false,
            "repeatable": false,
            "required": false,
            "showLabel": true,
            "type": "ddm-separator"
        },
        {
            "label": {
                "it_IT": "Da",
                "en_US": "From"
            },
            "predefinedValue": {
                "it_IT": "",
                "en_US": ""
            },
            "style": {
                "it_IT": "",
                "en_US": ""
            },
            "tip": {
                "it_IT": "",
                "en_US": ""
            },
            "dataType": "date",
            "fieldNamespace": "ddm",
            "indexType": "keyword",
            "localizable": true,
            "name": "bando_da",
            "readOnly": false,
            "repeatable": false,
            "required": false,
            "showLabel": true,
            "type": "ddm-date"
        },
        {
            "label": {
                "it_IT": "a",
                "en_US": "to"
            },
            "predefinedValue": {
                "it_IT": "",
                "en_US": ""
            },
            "style": {
                "it_IT": "",
                "en_US": ""
            },
            "tip": {
                "it_IT": "",
                "en_US": ""
            },
            "dataType": "date",
            "fieldNamespace": "ddm",
            "indexType": "keyword",
            "localizable": true,
            "name": "bando_a",
            "readOnly": false,
            "repeatable": false,
            "required": false,
            "showLabel": true,
            "type": "ddm-date"
        },
        {
            "label": {
                "it_IT": "Partecipa (link)",
                "en_US": "Participate (link)"
            },
            "predefinedValue": {
                "it_IT": "",
                "en_US": ""
            },
            "style": {
                "it_IT": "",
                "en_US": ""
            },
            "tip": {
                "it_IT": "",
                "en_US": ""
            },
            "dataType": "string",
            "indexType": "keyword",
            "localizable": true,
            "name": "partecipa_link",
            "readOnly": false,
            "repeatable": false,
            "required": false,
            "showLabel": true,
            "type": "text",
            "nestedFields": [
                {
                    "label": {
                        "it_IT": "E-mail",
                        "en_US": "E-mail"
                    },
                    "predefinedValue": {
                        "it_IT": "",
                        "en_US": ""
                    },
                    "style": {
                        "it_IT": "",
                        "en_US": ""
                    },
                    "tip": {
                        "it_IT": "",
                        "en_US": ""
                    },
                    "dataType": "string",
                    "indexType": "keyword",
                    "localizable": true,
                    "name": "partecipa_email",
                    "readOnly": false,
                    "repeatable": false,
                    "required": false,
                    "showLabel": true,
                    "type": "text"
                }
            ]
        },
        {
            "label": {
                "it_IT": "Descrizione",
                "en_US": "Description"
            },
            "predefinedValue": {
                "it_IT": "",
                "en_US": ""
            },
            "style": {
                "it_IT": "",
                "en_US": ""
            },
            "tip": {
                "it_IT": "",
                "en_US": ""
            },
            "dataType": "html",
            "fieldNamespace": "ddm",
            "indexType": "text",
            "localizable": true,
            "name": "descrizione",
            "readOnly": false,
            "repeatable": false,
            "required": false,
            "showLabel": true,
            "type": "ddm-text-html"
        },
        {
            "label": {
                "it_IT": "Chi può partecipare",
                "en_US": "Who can partecipate"
            },
            "predefinedValue": {
                "it_IT": "",
                "en_US": ""
            },
            "style": {
                "it_IT": "",
                "en_US": ""
            },
            "tip": {
                "it_IT": "",
                "en_US": ""
            },
            "dataType": "html",
            "fieldNamespace": "ddm",
            "indexType": "text",
            "localizable": true,
            "name": "chiPartecipa",
            "readOnly": false,
            "repeatable": false,
            "required": false,
            "showLabel": true,
            "type": "ddm-text-html"
        },
        {
            "label": {
                "it_IT": "Cosa finanzia",
                "en_US": "What finances"
            },
            "predefinedValue": {
                "it_IT": "",
                "en_US": ""
            },
            "style": {
                "it_IT": "",
                "en_US": ""
            },
            "tip": {
                "it_IT": "",
                "en_US": ""
            },
            "dataType": "html",
            "fieldNamespace": "ddm",
            "indexType": "text",
            "localizable": true,
            "name": "cosaFinanzia",
            "readOnly": false,
            "repeatable": false,
            "required": false,
            "showLabel": true,
            "type": "ddm-text-html"
        },
        {
            "label": {
                "it_IT": "Risorse per progetto",
                "en_US": "Project Resources"
            },
            "predefinedValue": {
                "it_IT": "",
                "en_US": ""
            },
            "style": {
                "it_IT": "",
                "en_US": ""
            },
            "tip": {
                "it_IT": "",
                "en_US": ""
            },
            "dataType": "string",
            "indexType": "keyword",
            "localizable": true,
            "name": "risorseProgetto",
            "readOnly": false,
            "repeatable": false,
            "required": false,
            "showLabel": true,
            "type": "text"
        },
        {
            "label": {
                "it_IT": "Risorse totali",
                "en_US": "Total Resources"
            },
            "predefinedValue": {
                "it_IT": "",
                "en_US": ""
            },
            "style": {
                "it_IT": "",
                "en_US": ""
            },
            "tip": {
                "it_IT": "",
                "en_US": ""
            },
            "dataType": "string",
            "indexType": "keyword",
            "localizable": true,
            "name": "risorseTotali",
            "readOnly": false,
            "repeatable": false,
            "required": false,
            "showLabel": true,
            "type": "text"
        },
        {
            "label": {
                "it_IT": "Come partecipare",
                "en_US": "How to partecipate"
            },
            "predefinedValue": {
                "it_IT": "",
                "en_US": ""
            },
            "style": {
                "it_IT": "",
                "en_US": ""
            },
            "tip": {
                "it_IT": "",
                "en_US": ""
            },
            "dataType": "html",
            "fieldNamespace": "ddm",
            "indexType": "text",
            "localizable": true,
            "name": "comePartecipare",
            "readOnly": false,
            "repeatable": false,
            "required": false,
            "showLabel": true,
            "type": "ddm-text-html",
            "nestedFields": [
                {
                    "label": {
                        "it_IT": "Documento",
                        "en_US": "Document"
                    },
                    "predefinedValue": {
                        "it_IT": "",
                        "en_US": ""
                    },
                    "style": {
                        "it_IT": "",
                        "en_US": ""
                    },
                    "tip": {
                        "it_IT": "",
                        "en_US": ""
                    },
                    "dataType": "document-library",
                    "fieldNamespace": "ddm",
                    "indexType": "keyword",
                    "localizable": true,
                    "name": "documento",
                    "readOnly": false,
                    "repeatable": true,
                    "required": false,
                    "showLabel": true,
                    "type": "ddm-documentlibrary",
                    "nestedFields": [
                        {
                            "label": {
                                "it_IT": "Titolo Documento",
                                "en_US": "Document Title"
                            },
                            "predefinedValue": {
                                "it_IT": "",
                                "en_US": ""
                            },
                            "style": {
                                "it_IT": "",
                                "en_US": ""
                            },
                            "tip": {
                                "it_IT": "",
                                "en_US": ""
                            },
                            "dataType": "string",
                            "indexType": "keyword",
                            "localizable": true,
                            "name": "titoloDocumento",
                            "readOnly": false,
                            "repeatable": false,
                            "required": false,
                            "showLabel": true,
                            "type": "text"
                        }
                    ]
                }
            ]
        },
        {
            "label": {
                "it_IT": "Domande",
                "en_US": "Questions"
            },
            "predefinedValue": {
                "it_IT": "",
                "en_US": ""
            },
            "style": {
                "it_IT": "",
                "en_US": ""
            },
            "tip": {
                "it_IT": "",
                "en_US": ""
            },
            "dataType": "",
            "fieldNamespace": "ddm",
            "indexType": "keyword",
            "localizable": true,
            "name": "domande",
            "readOnly": false,
            "repeatable": false,
            "required": false,
            "showLabel": true,
            "type": "ddm-separator"
        },
        {
            "label": {
                "it_IT": "Domanda",
                "en_US": "Question"
            },
            "predefinedValue": {
                "it_IT": "",
                "en_US": ""
            },
            "style": {
                "it_IT": "",
                "en_US": ""
            },
            "tip": {
                "it_IT": "",
                "en_US": ""
            },
            "dataType": "string",
            "indexType": "keyword",
            "localizable": true,
            "name": "domanda",
            "readOnly": false,
            "repeatable": true,
            "required": false,
            "showLabel": true,
            "type": "text",
            "nestedFields": [
                {
                    "label": {
                        "it_IT": "Risposta",
                        "en_US": "Answer"
                    },
                    "predefinedValue": {
                        "it_IT": "",
                        "en_US": ""
                    },
                    "style": {
                        "it_IT": "",
                        "en_US": ""
                    },
                    "tip": {
                        "it_IT": "",
                        "en_US": ""
                    },
                    "dataType": "html",
                    "fieldNamespace": "ddm",
                    "indexType": "text",
                    "localizable": true,
                    "name": "risposta",
                    "readOnly": false,
                    "repeatable": false,
                    "required": false,
                    "showLabel": true,
                    "type": "ddm-text-html"
                }
            ]
        },
        {
            "label": {
                "it_IT": "Per maggiori info",
                "en_US": "More Info"
            },
            "predefinedValue": {
                "it_IT": "",
                "en_US": ""
            },
            "style": {
                "it_IT": "",
                "en_US": ""
            },
            "tip": {
                "it_IT": "",
                "en_US": ""
            },
            "dataType": "",
            "fieldNamespace": "ddm",
            "indexType": "keyword",
            "localizable": true,
            "name": "maggioriInfo",
            "readOnly": false,
            "repeatable": false,
            "required": false,
            "showLabel": true,
            "type": "ddm-separator"
        },
        {
            "label": {
                "it_IT": "Leggi l'avviso pubblico (documento)",
                "en_US": "Read public warning (document)"
            },
            "predefinedValue": {
                "it_IT": "",
                "en_US": ""
            },
            "style": {
                "it_IT": "",
                "en_US": ""
            },
            "tip": {
                "it_IT": "",
                "en_US": ""
            },
            "dataType": "document-library",
            "fieldNamespace": "ddm",
            "indexType": "keyword",
            "localizable": true,
            "name": "avvisoPubblico",
            "readOnly": false,
            "repeatable": false,
            "required": false,
            "showLabel": true,
            "type": "ddm-documentlibrary"
        },
        {
            "label": {
                "it_IT": "Guarda la determinazione (documento)",
                "en_US": "Look at the determination (document)"
            },
            "predefinedValue": {
                "it_IT": "",
                "en_US": ""
            },
            "style": {
                "it_IT": "",
                "en_US": ""
            },
            "tip": {
                "it_IT": "",
                "en_US": ""
            },
            "dataType": "document-library",
            "fieldNamespace": "ddm",
            "indexType": "keyword",
            "localizable": true,
            "name": "determinazione",
            "readOnly": false,
            "repeatable": false,
            "required": false,
            "showLabel": true,
            "type": "ddm-documentlibrary"
        },
        {
            "label": {
                "it_IT": "Consulta il BURP (link)",
                "en_US": "Consult BURP (link)"
            },
            "predefinedValue": {
                "it_IT": "",
                "en_US": ""
            },
            "style": {
                "it_IT": "",
                "en_US": ""
            },
            "tip": {
                "it_IT": "",
                "en_US": ""
            },
            "dataType": "string",
            "indexType": "keyword",
            "localizable": true,
            "name": "burp",
            "readOnly": false,
            "repeatable": false,
            "required": false,
            "showLabel": true,
            "type": "text"
        },
        {
            "label": {
                "it_IT": "Visita il sito (link)",
                "en_US": "Go to site (link)"
            },
            "predefinedValue": {
                "it_IT": "",
                "en_US": ""
            },
            "style": {
                "it_IT": "",
                "en_US": ""
            },
            "tip": {
                "it_IT": "",
                "en_US": ""
            },
            "dataType": "string",
            "indexType": "keyword",
            "localizable": true,
            "name": "sito",
            "readOnly": false,
            "repeatable": false,
            "required": false,
            "showLabel": true,
            "type": "text"
        },
        {
            "label": {
                "it_IT": "Sezione Formazione professionale (link)",
                "en_US": "Professional Training Section (link)"
            },
            "predefinedValue": {
                "it_IT": "",
                "en_US": ""
            },
            "style": {
                "it_IT": "",
                "en_US": ""
            },
            "tip": {
                "it_IT": "",
                "en_US": ""
            },
            "dataType": "string",
            "indexType": "keyword",
            "localizable": true,
            "name": "formazioneProfessionale",
            "readOnly": false,
            "repeatable": false,
            "required": false,
            "showLabel": true,
            "type": "text"
        },
        {
            "label": {
                "it_IT": "Responsabile di procedimento",
                "en_US": "Proceedings person in charge"
            },
            "predefinedValue": {
                "it_IT": "",
                "en_US": ""
            },
            "style": {
                "it_IT": "",
                "en_US": ""
            },
            "tip": {
                "it_IT": "",
                "en_US": ""
            },
            "dataType": "string",
            "indexType": "keyword",
            "localizable": true,
            "name": "responsabileDiProcedimento",
            "readOnly": false,
            "repeatable": true,
            "required": false,
            "showLabel": true,
            "type": "text",
            "nestedFields": [
                {
                    "label": {
                        "it_IT": "Link istituzionale",
                        "en_US": "Institutional link"
                    },
                    "predefinedValue": {
                        "it_IT": "",
                        "en_US": ""
                    },
                    "style": {
                        "it_IT": "",
                        "en_US": ""
                    },
                    "tip": {
                        "it_IT": "",
                        "en_US": ""
                    },
                    "dataType": "string",
                    "indexType": "keyword",
                    "localizable": true,
                    "name": "procedimento_link",
                    "readOnly": false,
                    "repeatable": false,
                    "required": false,
                    "showLabel": true,
                    "type": "text"
                },
                {
                    "label": {
                        "it_IT": "Graduatoria",
                        "en_US": "Ranking"
                    },
                    "options": [
                        {
                            "value": "before",
                            "label": {
                                "it_IT": "sino alla pubblicazione della graduatoria",
                                "en_US": "until the ranking is published"
                            }
                        },
                        {
                            "value": "after",
                            "label": {
                                "it_IT": "dopo la pubblicazione della graduatoria",
                                "en_US": "after the ranking has been published"
                            }
                        }
                    ],
                    "predefinedValue": {
                        "it_IT": [
                            ""
                        ],
                        "en_US": [
                            ""
                        ]
                    },
                    "style": {
                        "it_IT": "",
                        "en_US": ""
                    },
                    "tip": {
                        "it_IT": "",
                        "en_US": ""
                    },
                    "dataType": "string",
                    "indexType": "keyword",
                    "localizable": true,
                    "multiple": false,
                    "name": "procedimento_graduatoria",
                    "readOnly": false,
                    "repeatable": false,
                    "required": false,
                    "showLabel": true,
                    "type": "select"
                },
                {
                    "label": {
                        "it_IT": "Telefono",
                        "en_US": "Phone"
                    },
                    "predefinedValue": {
                        "it_IT": "",
                        "en_US": ""
                    },
                    "style": {
                        "it_IT": "",
                        "en_US": ""
                    },
                    "tip": {
                        "it_IT": "",
                        "en_US": ""
                    },
                    "dataType": "string",
                    "indexType": "keyword",
                    "localizable": true,
                    "name": "procedimento_telefono",
                    "readOnly": false,
                    "repeatable": false,
                    "required": false,
                    "showLabel": true,
                    "type": "text"
                },
                {
                    "label": {
                        "it_IT": "E-mail",
                        "en_US": "E-mail"
                    },
                    "predefinedValue": {
                        "it_IT": "",
                        "en_US": ""
                    },
                    "style": {
                        "it_IT": "",
                        "en_US": ""
                    },
                    "tip": {
                        "it_IT": "",
                        "en_US": ""
                    },
                    "dataType": "string",
                    "indexType": "keyword",
                    "localizable": true,
                    "name": "procedimento_email",
                    "readOnly": false,
                    "repeatable": false,
                    "required": false,
                    "showLabel": true,
                    "type": "text"
                },
                {
                    "label": {
                        "it_IT": "PEC",
                        "en_US": "PEC"
                    },
                    "predefinedValue": {
                        "it_IT": "",
                        "en_US": ""
                    },
                    "style": {
                        "it_IT": "",
                        "en_US": ""
                    },
                    "tip": {
                        "it_IT": "",
                        "en_US": ""
                    },
                    "dataType": "string",
                    "indexType": "keyword",
                    "localizable": true,
                    "name": "procedimento_pec",
                    "readOnly": false,
                    "repeatable": false,
                    "required": false,
                    "showLabel": true,
                    "type": "text"
                }
            ]
        },
        {
            "label": {
                "it_IT": "Responsabile di azione",
                "en_US": "Action person in charge"
            },
            "predefinedValue": {
                "it_IT": "",
                "en_US": ""
            },
            "style": {
                "it_IT": "",
                "en_US": ""
            },
            "tip": {
                "it_IT": "",
                "en_US": ""
            },
            "dataType": "string",
            "indexType": "keyword",
            "localizable": true,
            "name": "responsabileDiAzione",
            "readOnly": false,
            "repeatable": false,
            "required": false,
            "showLabel": true,
            "type": "text",
            "nestedFields": [
                {
                    "label": {
                        "it_IT": "Link istituzionale",
                        "en_US": "Institutional link"
                    },
                    "predefinedValue": {
                        "it_IT": "",
                        "en_US": ""
                    },
                    "style": {
                        "it_IT": "",
                        "en_US": ""
                    },
                    "tip": {
                        "it_IT": "",
                        "en_US": ""
                    },
                    "dataType": "string",
                    "indexType": "keyword",
                    "localizable": true,
                    "name": "azione_link",
                    "readOnly": false,
                    "repeatable": false,
                    "required": false,
                    "showLabel": true,
                    "type": "text"
                },
                {
                    "label": {
                        "it_IT": "Telefono",
                        "en_US": "Phone"
                    },
                    "predefinedValue": {
                        "it_IT": "",
                        "en_US": ""
                    },
                    "style": {
                        "it_IT": "",
                        "en_US": ""
                    },
                    "tip": {
                        "it_IT": "",
                        "en_US": ""
                    },
                    "dataType": "string",
                    "indexType": "keyword",
                    "localizable": true,
                    "name": "azione_telefono",
                    "readOnly": false,
                    "repeatable": false,
                    "required": false,
                    "showLabel": true,
                    "type": "text"
                },
                {
                    "label": {
                        "it_IT": "E-mail",
                        "en_US": "E-mail"
                    },
                    "predefinedValue": {
                        "it_IT": "",
                        "en_US": ""
                    },
                    "style": {
                        "it_IT": "",
                        "en_US": ""
                    },
                    "tip": {
                        "it_IT": "",
                        "en_US": ""
                    },
                    "dataType": "string",
                    "indexType": "keyword",
                    "localizable": true,
                    "name": "azione_email",
                    "readOnly": false,
                    "repeatable": false,
                    "required": false,
                    "showLabel": true,
                    "type": "text"
                },
                {
                    "label": {
                        "it_IT": "PEC",
                        "en_US": "PEC"
                    },
                    "predefinedValue": {
                        "it_IT": "",
                        "en_US": ""
                    },
                    "style": {
                        "it_IT": "",
                        "en_US": ""
                    },
                    "tip": {
                        "it_IT": "",
                        "en_US": ""
                    },
                    "dataType": "string",
                    "indexType": "keyword",
                    "localizable": true,
                    "name": "azione_pec",
                    "readOnly": false,
                    "repeatable": false,
                    "required": false,
                    "showLabel": true,
                    "type": "text"
                }
            ]
        },
        {
            "label": {
                "it_IT": "Altri Contatti",
                "en_US": "Other Contacts"
            },
            "predefinedValue": {
                "it_IT": "",
                "en_US": ""
            },
            "style": {
                "it_IT": "",
                "en_US": ""
            },
            "tip": {
                "it_IT": "",
                "en_US": ""
            },
            "dataType": "html",
            "fieldNamespace": "ddm",
            "indexType": "text",
            "localizable": true,
            "name": "altriContatti",
            "readOnly": false,
            "repeatable": false,
            "required": false,
            "showLabel": true,
            "type": "ddm-text-html"
        }
    ]
}