{
    "availableLanguageIds": [
        "it_IT",
        "en_US"
    ],
    "defaultLanguageId": "it_IT",
    "fields": [
        {
            "label": {
                "it_IT": "Immagine",
                "en_US": "Image"
            },
            "predefinedValue": {
                "it_IT": "",
                "en_US": ""
            },
            "style": {
                "it_IT": "",
                "en_US": ""
            },
            "tip": {
                "it_IT": "",
                "en_US": ""
            },
            "dataType": "image",
            "fieldNamespace": "ddm",
            "indexType": "text",
            "localizable": true,
            "name": "image",
            "readOnly": false,
            "repeatable": false,
            "required": false,
            "showLabel": true,
            "type": "ddm-image"
        }
    ]
}