{
    "availableLanguageIds": [
        "it_IT",
        "en_US"
    ],
    "defaultLanguageId": "it_IT",
    "fields": [
        {
            "label": {
                "it_IT": "Contenuto",
                "en_US": "Content"
            },
            "predefinedValue": {
                "it_IT": "",
                "en_US": ""
            },
            "style": {
                "it_IT": "",
                "en_US": ""
            },
            "tip": {
                "it_IT": "",
                "en_US": ""
            },
            "dataType": "html",
            "fieldNamespace": "ddm",
            "indexType": "text",
            "localizable": true,
            "name": "content",
            "readOnly": false,
            "repeatable": false,
            "required": false,
            "showLabel": true,
            "type": "ddm-text-html"
        },
        {
            "label": {
                "it_IT": "Nome Dirigente",
                "en_US": "Leader Name"
            },
            "predefinedValue": {
                "it_IT": "",
                "en_US": ""
            },
            "style": {
                "it_IT": "",
                "en_US": ""
            },
            "tip": {
                "it_IT": "",
                "en_US": ""
            },
            "dataType": "string",
            "indexType": "keyword",
            "localizable": true,
            "name": "leaderName1",
            "readOnly": false,
            "repeatable": false,
            "required": true,
            "showLabel": true,
            "type": "text",
            "nestedFields": [
                {
                    "label": {
                        "it_IT": "Link Dirigente",
                        "en_US": "Leader Link"
                    },
                    "predefinedValue": {
                        "it_IT": "",
                        "en_US": ""
                    },
                    "style": {
                        "it_IT": "",
                        "en_US": ""
                    },
                    "tip": {
                        "it_IT": "",
                        "en_US": ""
                    },
                    "dataType": "string",
                    "indexType": "keyword",
                    "localizable": true,
                    "name": "leaderLink1",
                    "readOnly": false,
                    "repeatable": false,
                    "required": false,
                    "showLabel": true,
                    "type": "text"
                },
                {
                    "label": {
                        "it_IT": "Sede",
                        "en_US": "Seat"
                    },
                    "predefinedValue": {
                        "it_IT": "",
                        "en_US": ""
                    },
                    "style": {
                        "it_IT": "",
                        "en_US": ""
                    },
                    "tip": {
                        "it_IT": "",
                        "en_US": ""
                    },
                    "dataType": "string",
                    "indexType": "keyword",
                    "localizable": true,
                    "name": "seat1",
                    "readOnly": false,
                    "repeatable": false,
                    "required": true,
                    "showLabel": true,
                    "type": "text"
                },
                {
                    "label": {
                        "it_IT": "Telefono",
                        "en_US": "Phone"
                    },
                    "predefinedValue": {
                        "it_IT": "",
                        "en_US": ""
                    },
                    "style": {
                        "it_IT": "",
                        "en_US": ""
                    },
                    "tip": {
                        "it_IT": "",
                        "en_US": ""
                    },
                    "dataType": "string",
                    "indexType": "keyword",
                    "localizable": true,
                    "name": "phone1",
                    "readOnly": false,
                    "repeatable": false,
                    "required": true,
                    "showLabel": true,
                    "type": "text"
                },
                {
                    "label": {
                        "it_IT": "Email",
                        "en_US": "Email"
                    },
                    "predefinedValue": {
                        "it_IT": "",
                        "en_US": ""
                    },
                    "style": {
                        "it_IT": "",
                        "en_US": ""
                    },
                    "tip": {
                        "it_IT": "",
                        "en_US": ""
                    },
                    "dataType": "string",
                    "indexType": "keyword",
                    "localizable": true,
                    "name": "email1",
                    "readOnly": false,
                    "repeatable": false,
                    "required": true,
                    "showLabel": true,
                    "type": "text"
                },
                {
                    "label": {
                        "it_IT": "Pec Email",
                        "en_US": "Pec Email"
                    },
                    "predefinedValue": {
                        "it_IT": "",
                        "en_US": ""
                    },
                    "style": {
                        "it_IT": "",
                        "en_US": ""
                    },
                    "tip": {
                        "it_IT": "",
                        "en_US": ""
                    },
                    "dataType": "string",
                    "indexType": "keyword",
                    "localizable": true,
                    "name": "pecEmail1",
                    "readOnly": false,
                    "repeatable": false,
                    "required": false,
                    "showLabel": true,
                    "type": "text"
                }
            ]
        },
        {
            "label": {
                "it_IT": "Responsabile",
                "en_US": "Responsible"
            },
            "predefinedValue": {
                "it_IT": "",
                "en_US": ""
            },
            "style": {
                "it_IT": "",
                "en_US": ""
            },
            "tip": {
                "it_IT": "",
                "en_US": ""
            },
            "dataType": "string",
            "indexType": "keyword",
            "localizable": true,
            "name": "responsible",
            "readOnly": false,
            "repeatable": true,
            "required": false,
            "showLabel": true,
            "type": "text",
            "nestedFields": [
                {
                    "label": {
                        "it_IT": "Contenuto Box",
                        "en_US": "Box Content"
                    },
                    "predefinedValue": {
                        "it_IT": "",
                        "en_US": ""
                    },
                    "style": {
                        "it_IT": "",
                        "en_US": ""
                    },
                    "tip": {
                        "it_IT": "",
                        "en_US": ""
                    },
                    "dataType": "html",
                    "fieldNamespace": "ddm",
                    "indexType": "text",
                    "localizable": true,
                    "name": "boxContent",
                    "readOnly": false,
                    "repeatable": false,
                    "required": false,
                    "showLabel": true,
                    "type": "ddm-text-html"
                },
                {
                    "label": {
                        "it_IT": "Documenti",
                        "en_US": "Document"
                    },
                    "predefinedValue": {
                        "it_IT": "",
                        "en_US": ""
                    },
                    "style": {
                        "it_IT": "",
                        "en_US": ""
                    },
                    "tip": {
                        "it_IT": "",
                        "en_US": ""
                    },
                    "dataType": "document-library",
                    "fieldNamespace": "ddm",
                    "indexType": "keyword",
                    "localizable": true,
                    "name": "document",
                    "readOnly": false,
                    "repeatable": true,
                    "required": false,
                    "showLabel": true,
                    "type": "ddm-documentlibrary",
                    "nestedFields": [
                        {
                            "label": {
                                "it_IT": "Testo Documento",
                                "en_US": "Document Text"
                            },
                            "predefinedValue": {
                                "it_IT": "",
                                "en_US": ""
                            },
                            "style": {
                                "it_IT": "",
                                "en_US": ""
                            },
                            "tip": {
                                "it_IT": "",
                                "en_US": ""
                            },
                            "dataType": "string",
                            "indexType": "keyword",
                            "localizable": true,
                            "name": "textDocument",
                            "readOnly": false,
                            "repeatable": false,
                            "required": false,
                            "showLabel": true,
                            "type": "text"
                        },
                        {
                            "label": {
                                "it_IT": "Tipo documento",
                                "en_US": "Document Type"
                            },
                            "options": [
                                {
                                    "value": "pdf",
                                    "label": {
                                        "it_IT": "PDF",
                                        "en_US": "PDF"
                                    }
                                },
                                {
                                    "value": "doc",
                                    "label": {
                                        "it_IT": "DOC",
                                        "en_US": "DOC"
                                    }
                                },
                                {
                                    "value": "xls",
                                    "label": {
                                        "it_IT": "EXCEL",
                                        "en_US": "EXCEL"
                                    }
                                },
                                {
                                    "value": "csv",
                                    "label": {
                                        "it_IT": "CSV",
                                        "en_US": "CSV"
                                    }
                                },
                                {
                                    "value": "zip",
                                    "label": {
                                        "it_IT": "ZIP",
                                        "en_US": "ZIP"
                                    }
                                }
                            ],
                            "predefinedValue": {
                                "it_IT": [
                                    ""
                                ],
                                "en_US": [
                                    ""
                                ]
                            },
                            "style": {
                                "it_IT": "",
                                "en_US": ""
                            },
                            "tip": {
                                "it_IT": "",
                                "en_US": ""
                            },
                            "dataType": "string",
                            "indexType": "keyword",
                            "localizable": true,
                            "multiple": false,
                            "name": "documentType",
                            "readOnly": false,
                            "repeatable": false,
                            "required": false,
                            "showLabel": true,
                            "type": "select"
                        }
                    ]
                },
                {
                    "label": {
                        "it_IT": "Nome Dirigente",
                        "en_US": "Nome Dirigente"
                    },
                    "predefinedValue": {
                        "it_IT": "",
                        "en_US": ""
                    },
                    "style": {
                        "it_IT": "",
                        "en_US": ""
                    },
                    "tip": {
                        "it_IT": "",
                        "en_US": ""
                    },
                    "dataType": "string",
                    "indexType": "keyword",
                    "localizable": true,
                    "name": "leaderName",
                    "readOnly": false,
                    "repeatable": false,
                    "required": true,
                    "showLabel": true,
                    "type": "text",
                    "nestedFields": [
                        {
                            "label": {
                                "it_IT": "Link Dirigente",
                                "en_US": "Link Dirigente"
                            },
                            "predefinedValue": {
                                "it_IT": "",
                                "en_US": ""
                            },
                            "style": {
                                "it_IT": "",
                                "en_US": ""
                            },
                            "tip": {
                                "it_IT": "",
                                "en_US": ""
                            },
                            "dataType": "string",
                            "indexType": "keyword",
                            "localizable": true,
                            "name": "leaderLink",
                            "readOnly": false,
                            "repeatable": false,
                            "required": false,
                            "showLabel": true,
                            "type": "text"
                        },
                        {
                            "label": {
                                "it_IT": "Sede",
                                "en_US": "Sede"
                            },
                            "predefinedValue": {
                                "it_IT": "",
                                "en_US": ""
                            },
                            "style": {
                                "it_IT": "",
                                "en_US": ""
                            },
                            "tip": {
                                "it_IT": "",
                                "en_US": ""
                            },
                            "dataType": "string",
                            "indexType": "keyword",
                            "localizable": true,
                            "name": "seat",
                            "readOnly": false,
                            "repeatable": false,
                            "required": true,
                            "showLabel": true,
                            "type": "text"
                        },
                        {
                            "label": {
                                "it_IT": "Telefono",
                                "en_US": "Telefono"
                            },
                            "predefinedValue": {
                                "it_IT": "",
                                "en_US": ""
                            },
                            "style": {
                                "it_IT": "",
                                "en_US": ""
                            },
                            "tip": {
                                "it_IT": "",
                                "en_US": ""
                            },
                            "dataType": "string",
                            "indexType": "keyword",
                            "localizable": true,
                            "name": "phone",
                            "readOnly": false,
                            "repeatable": false,
                            "required": true,
                            "showLabel": true,
                            "type": "text"
                        },
                        {
                            "label": {
                                "it_IT": "Email",
                                "en_US": "Email"
                            },
                            "predefinedValue": {
                                "it_IT": "",
                                "en_US": ""
                            },
                            "style": {
                                "it_IT": "",
                                "en_US": ""
                            },
                            "tip": {
                                "it_IT": "",
                                "en_US": ""
                            },
                            "dataType": "string",
                            "indexType": "keyword",
                            "localizable": true,
                            "name": "email",
                            "readOnly": false,
                            "repeatable": false,
                            "required": true,
                            "showLabel": true,
                            "type": "text"
                        },
                        {
                            "label": {
                                "it_IT": "Pec Email",
                                "en_US": "Pec Email"
                            },
                            "predefinedValue": {
                                "it_IT": "",
                                "en_US": ""
                            },
                            "style": {
                                "it_IT": "",
                                "en_US": ""
                            },
                            "tip": {
                                "it_IT": "",
                                "en_US": ""
                            },
                            "dataType": "string",
                            "indexType": "keyword",
                            "localizable": true,
                            "name": "pecEmail",
                            "readOnly": false,
                            "repeatable": false,
                            "required": false,
                            "showLabel": true,
                            "type": "text"
                        }
                    ]
                }
            ]
        }
    ]
}