<svg xmlns="http://www.w3.org/2000/svg" width="24" height="30" viewBox="0 0 24 30">
  <g id="Group_4465" data-name="Group 4465" transform="translate(-949.475 -2992)">
    <path id="Path_3748" data-name="Path 3748" d="M627.527,395.646l-4.727,4.83v-3.732a1.075,1.075,0,0,1,1.091-1.1Zm-20.072,2.927V377.427a2.952,2.952,0,0,1,2.872-2.964h15.346a2.9,2.9,0,0,1,2.872,2.964v16.756h-4.691a2.585,2.585,0,0,0-2.545,2.561v4.793H610.327A2.928,2.928,0,0,1,607.455,398.573ZM630,377.427A4.367,4.367,0,0,0,625.673,373H610.327A4.367,4.367,0,0,0,606,377.427V398.61a4.359,4.359,0,0,0,4.327,4.39h11.855c.036,0,.036,0,.073-.037.036,0,.036,0,.072-.036.037,0,.037-.037.073-.037a.035.035,0,0,0,.036-.036l.109-.11,7.2-7.354a.036.036,0,0,1,.037-.036l.072-.073c0-.037.037-.037.037-.074s.036-.036.036-.073,0-.036.037-.073V377.427Z" transform="translate(343.475 2619)" fill="#008ccc"/>
    <line id="Line_661" data-name="Line 661" x2="13" transform="translate(954.974 3000.5)" fill="none" stroke="#008ccc" stroke-width="1.5"/>
    <line id="Line_662" data-name="Line 662" x2="13" transform="translate(954.974 3004.5)" fill="none" stroke="#008ccc" stroke-width="1.5"/>
    <line id="Line_663" data-name="Line 663" x2="13" transform="translate(954.974 3008.5)" fill="none" stroke="#008ccc" stroke-width="1.5"/>
  </g>
</svg>
