<svg xmlns="http://www.w3.org/2000/svg" width="24" height="30" viewBox="0 0 24 30">
  <g id="Group_4464" data-name="Group 4464" transform="translate(-1010.475 -2992)">
    <path id="Path_3749" data-name="Path 3749" d="M735.527,395.646l-4.727,4.83v-3.732a1.075,1.075,0,0,1,1.091-1.1Zm-20.072,2.927V377.427a2.952,2.952,0,0,1,2.872-2.964h15.346a2.9,2.9,0,0,1,2.872,2.964v16.756h-4.691a2.585,2.585,0,0,0-2.545,2.561v4.793H718.327A2.928,2.928,0,0,1,715.455,398.573ZM738,377.427A4.367,4.367,0,0,0,733.673,373H718.327A4.367,4.367,0,0,0,714,377.427V398.61a4.359,4.359,0,0,0,4.327,4.39h11.855c.036,0,.036,0,.073-.037.036,0,.036,0,.072-.036.037,0,.037-.037.073-.037a.035.035,0,0,0,.036-.036l.109-.11,7.2-7.354a.036.036,0,0,1,.037-.036l.072-.073c0-.037.037-.037.037-.074s.036-.036.036-.073,0-.036.037-.073v-.22Z" transform="translate(296.475 2619)" fill="#93c11e"/>
    <line id="Line_664" data-name="Line 664" x2="13" transform="translate(1015.974 2998.5)" fill="none" stroke="#93c11e" stroke-width="1.5"/>
    <line id="Line_665" data-name="Line 665" x2="13" transform="translate(1015.974 3010.5)" fill="none" stroke="#93c11e" stroke-width="1.5"/>
    <line id="Line_666" data-name="Line 666" x2="13" transform="translate(1015.974 3002.5)" fill="none" stroke="#93c11e" stroke-width="1.5"/>
    <line id="Line_667" data-name="Line 667" x2="13" transform="translate(1015.974 3006.5)" fill="none" stroke="#93c11e" stroke-width="1.5"/>
    <line id="Line_668" data-name="Line 668" y2="13.481" transform="translate(1028.474 2997.75)" fill="none" stroke="#93c11e" stroke-width="1.5"/>
    <line id="Line_669" data-name="Line 669" y2="12.016" transform="translate(1022.474 2997.984)" fill="none" stroke="#93c11e" stroke-width="1.5"/>
    <line id="Line_670" data-name="Line 670" y2="13.481" transform="translate(1016.474 2997.75)" fill="none" stroke="#93c11e" stroke-width="1.5"/>
  </g>
</svg>
