<svg xmlns="http://www.w3.org/2000/svg" width="24" height="30" viewBox="0 0 24 30">
  <g id="Group_4463" data-name="Group 4463" transform="translate(-1069.475 -2992)">
    <path id="Path_3750" data-name="Path 3750" d="M843.527,395.646l-4.727,4.83v-3.732a1.075,1.075,0,0,1,1.091-1.1Zm-20.072,2.927V377.427a2.952,2.952,0,0,1,2.872-2.964h15.346a2.9,2.9,0,0,1,2.872,2.964v16.756h-4.691a2.585,2.585,0,0,0-2.545,2.561v4.793H826.327A2.928,2.928,0,0,1,823.455,398.573ZM846,377.427A4.367,4.367,0,0,0,841.673,373H826.327A4.367,4.367,0,0,0,822,377.427V398.61a4.359,4.359,0,0,0,4.327,4.39h11.855c.036,0,.036,0,.073-.037.036,0,.036,0,.072-.036.037,0,.037-.037.073-.037a.035.035,0,0,0,.036-.036l.109-.11,7.2-7.354a.036.036,0,0,1,.037-.036l.072-.073c0-.037.037-.037.037-.074s.036-.036.036-.073,0-.036.037-.073V377.427Z" transform="translate(247.475 2619)" fill="#6d6d6d"/>
    <path id="Path_3751" data-name="Path 3751" d="M830.969,389.373a1.259,1.259,0,1,1-1.259,1.259A1.263,1.263,0,0,1,830.969,389.373Zm-2.959,3.022a.631.631,0,0,0,.629.756h4.723a.665.665,0,0,0,.63-.756l-1.008-4.408a.613.613,0,0,0-.629-.5h-2.771a.614.614,0,0,0-.63.5Z" transform="translate(247.475 2619)" fill="#6d6d6d"/>
    <rect id="Rectangle_950" data-name="Rectangle 950" width="3.778" height="1.259" transform="translate(1076.554 3003.965)" fill="#6d6d6d"/>
    <rect id="Rectangle_951" data-name="Rectangle 951" width="1.889" height="1.259" transform="translate(1078.443 3002.075)" fill="#6d6d6d"/>
    <rect id="Rectangle_952" data-name="Rectangle 952" width="1.889" height="1.259" transform="translate(1076.554 3000.815)" fill="#6d6d6d"/>
    <rect id="Rectangle_953" data-name="Rectangle 953" width="1.889" height="1.259" transform="translate(1078.443 2999.557)" fill="#6d6d6d"/>
    <rect id="Rectangle_954" data-name="Rectangle 954" width="1.889" height="1.259" transform="translate(1076.554 2998.297)" fill="#6d6d6d"/>
    <rect id="Rectangle_955" data-name="Rectangle 955" width="1.889" height="1.259" transform="translate(1078.443 2997.038)" fill="#6d6d6d"/>
    <rect id="Rectangle_956" data-name="Rectangle 956" width="1.889" height="1.259" transform="translate(1076.554 2995.778)" fill="#6d6d6d"/>
    <rect id="Rectangle_957" data-name="Rectangle 957" width="1.889" height="1.259" transform="translate(1078.443 2994.519)" fill="#6d6d6d"/>
    <rect id="Rectangle_958" data-name="Rectangle 958" width="1.889" height="1.259" transform="translate(1076.554 2993.26)" fill="#6d6d6d"/>
  </g>
</svg>
