<svg xmlns="http://www.w3.org/2000/svg" width="50" height="50" viewBox="0 0 50 50">
  <g id="Group_4462" data-name="Group 4462" transform="translate(7684 -13098)">
    <g id="Group_4410" data-name="Group 4410" transform="translate(-7334 13378)">
      <path id="Path_4006" data-name="Path 4006" d="M-315.94-244.271l-1.267,1.21c-6.206,6.279-24.32-11.762-18.041-18.041l1.515-1.515a.914.914,0,0,1,1.3,0l3.825,3.825a1,1,0,0,1,0,1.371l-2.526,2.525a16.8,16.8,0,0,0,3.247,4.691,16.686,16.686,0,0,0,4.547,3.031l2.525-2.526a1,1,0,0,1,1.372,0l3.824,3.825a.914.914,0,0,1,0,1.3l-.32.305" fill="none" stroke="#007bc4" stroke-width="1.5"/>
      <path id="Path_4007" data-name="Path 4007" d="M-313.553-261.717a6.03,6.03,0,0,1-2.792,3.792h0l-.017.012-.035.022h0l-.082.051c-.755.464-1.6.944-2.5,1.427l-.033.018h0q-.434.231-.869.454h0l-.01,0c-1.259.644-2.285,1.115-2.668,1.288a.365.365,0,0,1-.124.031.363.363,0,0,1-.335-.171.374.374,0,0,1,.028-.422c.181-.237.462-.6.771-1.014l0,0,.013-.017,0,0c.282-.372.785-1.04,1.191-1.592a5.487,5.487,0,0,1-2.087-1.6h0l-.015-.019-.011-.015h0a5.224,5.224,0,0,1-.948-1.861l0-.011a5.478,5.478,0,0,1,.427-3.958l.013-.024h0a5.676,5.676,0,0,1,.408-.666,5.312,5.312,0,0,1,3.958-2.241h.018a5.535,5.535,0,0,1,3.326.865h0l.011.008.009.005.037.024h0a5.339,5.339,0,0,1,1.358,1.279,5.272,5.272,0,0,1,.355.549A5.6,5.6,0,0,1-313.553-261.717Z" fill="#007bc4"/>
    </g>
    <rect id="Rectangle_1066" data-name="Rectangle 1066" width="50" height="50" transform="translate(-7684 13098)" fill="none"/>
  </g>
</svg>
