<svg xmlns="http://www.w3.org/2000/svg" width="50" height="50" viewBox="0 0 50 50">
  <g id="Group_4443" data-name="Group 4443" transform="translate(7614 -13308)">
    <path id="Path_4045" data-name="Path 4045" d="M-241.8-30.377a8.423,8.423,0,0,0,8.414-8.413A8.423,8.423,0,0,0-241.8-47.2a8.482,8.482,0,0,0-2.013.254l-.112.027-4.244-12.262a.656.656,0,0,0-.616-.438h-4.657a.652.652,0,0,0-.652.65.652.652,0,0,0,.652.652h4.193l2.237,6.46h-13.8l-1.2-2.715a.654.654,0,0,0-.6-.39h-3.26a.652.652,0,0,0-.652.652.652.652,0,0,0,.652.65h2.835l1.077,2.45-.03.055-2.669,4.743-.105-.047A8.315,8.315,0,0,0-268.2-47.2a8.423,8.423,0,0,0-8.414,8.414,8.423,8.423,0,0,0,8.414,8.413,8.365,8.365,0,0,0,8.375-7.649l.009-.114h4.035a.677.677,0,0,0,.263-.054.1.1,0,0,1,.031-.026.267.267,0,0,0,.041-.028l.034-.026a.647.647,0,0,0,.162-.164l.044-.046,6.791-12.075h1.842l1.4,4.059-.1.048a8.432,8.432,0,0,0-4.95,7.662A8.423,8.423,0,0,0-241.8-30.377ZM-261.165-38a7.084,7.084,0,0,1-7.03,6.321,7.119,7.119,0,0,1-7.112-7.11A7.12,7.12,0,0,1-268.2-45.9a7.045,7.045,0,0,1,2.776.565l.129.055-3.472,6.172a.654.654,0,0,0,.005.648.643.643,0,0,0,.562.321h7.046Zm-5.919-1.44,2.919-5.187.113.082a7.1,7.1,0,0,1,2.887,4.966l.016.139Zm7.273,0-.009-.115a8.383,8.383,0,0,0-3.6-6.16l-.094-.064,2.217-3.945,4.525,10.284Zm9.8-10.931-5.7,10.127-4.539-10.314H-249.9Zm5.152,5.184.126-.061,2.309,6.673a.663.663,0,0,0,.829.4.654.654,0,0,0,.4-.829l-2.314-6.681.136-.031A6.934,6.934,0,0,1-241.8-45.9a7.12,7.12,0,0,1,7.112,7.111,7.119,7.119,0,0,1-7.112,7.11,7.117,7.117,0,0,1-7.11-7.11A7.061,7.061,0,0,1-244.855-45.188Z" transform="translate(-7334 13378)" fill="#007bc3"/>
    <rect id="Rectangle_1083" data-name="Rectangle 1083" width="50" height="50" transform="translate(-7614 13308)" fill="none"/>
  </g>
</svg>
