<?xml version="1.0" encoding="utf-8"?>
<!-- Generator: Adobe Illustrator 23.0.3, SVG Export Plug-In . SVG Version: 6.00 Build 0)  -->
<svg version="1.1" id="Livello_1" xmlns="http://www.w3.org/2000/svg" xmlns:xlink="http://www.w3.org/1999/xlink" x="0px" y="0px"
	 viewBox="0 0 89.3 126.2" style="enable-background:new 0 0 89.3 126.2;" xml:space="preserve">
<style type="text/css">
	.st0{opacity:0.3;fill:#008CCC;enable-background:new    ;}
	.st1{fill:#008CCC;}
</style>
<path class="st0" d="M80.2,111c-0.7-0.5-1.4-0.9-2.1-1.4c-6.8,5.2-16.3,5.3-26.8,5.4H49c-11,0-21.1,0-27.9-6.2
	c-0.2,0.1-0.5,0.2-0.7,0.3c-1.1,0.5-2.2,1.2-3.1,1.9c-0.8,0.6-1.4,1.3-1.9,2.1c-0.9,1.3-0.9,3,0,4.3c0.5,0.8,1.2,1.5,1.9,2.1
	c1,0.7,2,1.4,3.1,1.9c1.4,0.7,2.8,1.2,4.2,1.7c1.7,0.5,3.4,1,5.2,1.4c1.9,0.4,3.8,0.7,5.9,1c2.1,0.3,4.2,0.5,6.4,0.6
	s4.4,0.2,6.6,0.2c2.2,0,4.5-0.1,6.6-0.2c2.2-0.1,4.3-0.3,6.4-0.6c2.1-0.3,4-0.6,5.9-1c1.7-0.4,3.5-0.8,5.2-1.4
	c1.4-0.5,2.9-1,4.2-1.7c1.1-0.5,2.2-1.2,3.1-1.9c0.8-0.6,1.4-1.3,1.9-2.1c0.9-1.3,0.9-3,0-4.3C81.6,112.2,81,111.5,80.2,111z"/>
<g>
	<path class="st1" d="M22.2,44.3l-3.5-9.6c10-0.4,17-7.9,17-17.2v-0.1C35.7,7.8,28.2,0,17.8,0C7.4,0,0,7.7,0,17.3v0.1
		c0,4.8,2,9.4,5.6,12.7H5.5L22.2,44.3z"/>
	<path class="st1" d="M84.2,69.1L84.1,69c-0.1-0.2-0.2-0.4-0.4-0.7c-0.2-0.3-0.4-0.6-0.6-0.9c-2.8-5.3-10.2-10-18.7-15.4
		c-0.9-0.5-1.8-1.1-2.6-1.6c0.8-0.8,1.7-1.8,2.6-2.8c1.8-1.8,3.6-3.7,4.9-4.8c0.3-0.2,0.6-0.5,0.8-0.8c0.5-0.7,0.7-1.6,0.5-2.4
		c-0.2-0.8-0.6-1.6-1.3-2c-1-0.7-2.6-1.2-4.3-1.7l0.2-0.3v-1.5l-1-0.4c-13.2-4.6-25.8-0.8-28.2,0l-0.2,0.1c-0.5,0.3-0.9,0.9-0.9,1.6
		c-3.5,1.2-6.7,2.4-7.2,4.8c-0.3,1.3,0.3,2.6,1.6,3.9c0.7,0.7,1.6,1.6,2.7,2.7c1.2,1.2,2.7,2.7,4.2,4.1c-1.6,1.3-3.3,2.5-5.1,3.8
		c-4.8,3.4-9.8,7-13.6,12.9c-0.6,0.8-1.1,1.6-1.5,2.4c-6.6,10.9-6.5,24.5,0.4,35.3c6.9,11.2,19.3,11.2,32.5,11.2H49h2.8
		c13.2-0.2,25.5-0.3,32.4-11.6C91,94,91,80,84.2,69.1z M31.3,41.9c-0.6-0.6-0.7-0.9-0.7-1c0.3-0.9,3.3-2,5.5-2.7l2.6,5l2.7-1.4
		l-2.9-5.7C42.3,35,51.7,33,61.7,36l-3.3,5.7l2.6,1.5l2.5-4.5c1.2,0.3,3.1,0.9,4,1.4c0.1,0.1,0.1,0.2,0,0.3l-0.1,0.1
		c-1.5,1.2-3.4,3.2-5.2,5.1c-1.4,1.4-2.7,2.8-3.8,3.8c-6.8,2.4-16.5,1.3-19.1,0.4c-1.8-1.7-3.6-3.5-5.2-5.1
		C33,43.6,32,42.6,31.3,41.9z M81.6,103.3c-6,9.9-17,10-29.8,10.1h-2.9h-0.1c-12.8,0-23.8,0-29.9-9.8c-6.3-9.8-6.4-22.1-0.4-32.2
		c0.4-0.8,0.9-1.5,1.4-2.2c3.6-5.5,8.3-8.9,12.9-12.1c2.1-1.5,4-2.9,5.8-4.4c1.8,0.6,5.6,1.2,10,1.2c3.5,0,7.3-0.4,10.8-1.6
		c1.1,0.7,2.3,1.5,3.4,2.2c7.9,5,15.4,9.7,17.7,14.3l0.2,0.3c0.1,0.2,0.2,0.4,0.4,0.7c0.1,0.3,0.3,0.7,0.6,1
		C87.8,80.7,87.8,93.4,81.6,103.3z"/>
	<path class="st1" d="M56.5,90.1C56.4,90,56.3,90,56.2,90c-0.3,0-0.5,0.1-0.7,0.3S55,90.7,54.7,91c-0.3,0.2-0.7,0.5-1.2,0.7
		c-0.5,0.2-1.2,0.3-2,0.3c-1.4,0-2.5-0.4-3.4-1.4c-0.9-1-1.5-2.5-1.8-4.4h5.8c0.3,0,0.6-0.1,0.8-0.3c0.2-0.2,0.3-0.4,0.3-0.7v-1.3
		H46c0-0.1,0-0.3,0-0.4c0-0.1,0-0.3,0-0.4c0-0.2,0-0.4,0-0.6c0-0.2,0-0.4,0-0.6h7.7c0.4,0,0.7-0.1,0.9-0.3s0.3-0.4,0.3-0.7v-1.3
		h-8.5c0.3-1.8,1-3.2,1.9-4.1c0.9-0.9,2.1-1.4,3.4-1.4c0.5,0,0.9,0,1.3,0.1c0.3,0.1,0.6,0.2,0.9,0.3c0.3,0.1,0.5,0.2,0.7,0.4
		c0.2,0.1,0.3,0.3,0.5,0.4c0.1,0.1,0.3,0.2,0.4,0.3s0.2,0.1,0.4,0.1c0.2,0,0.4,0,0.5-0.1c0.2-0.1,0.3-0.2,0.4-0.3l1.5-1.6
		c-0.7-1.1-1.7-1.9-2.8-2.5c-1.1-0.6-2.4-0.9-4-0.9c-1.2,0-2.3,0.2-3.4,0.6c-1.1,0.4-2,1-2.8,1.8c-0.8,0.7-1.5,1.7-2.1,2.8
		c-0.5,1.1-0.9,2.3-1.2,3.7h-2.3V82h2c0,0.2,0,0.4,0,0.6s0,0.4,0,0.6c0,0.1,0,0.3,0,0.4c0,0.1,0,0.3,0,0.4h-2v2.3h2.2
		c0.3,1.5,0.6,2.7,1.1,3.9c0.5,1.2,1.1,2.2,1.9,3c0.8,0.8,1.7,1.4,2.8,1.9s2.3,0.7,3.6,0.7c1.7,0,3.1-0.3,4.3-1
		c1.2-0.6,2.2-1.6,3-2.8l-1.8-1.7C56.7,90.2,56.6,90.1,56.5,90.1z"/>
</g>
</svg>
